{
  "project_info": {
    "project_number": "1065667128087",
    "firebase_url": "https://fwdss-app.firebaseio.com",
    "project_id": "fwdss-app",
    "storage_bucket": "fwdss-app.appspot.com"
  },
  "client": [
    {
      "client_info": {
        "mobilesdk_app_id": "1:1065667128087:android:94eb6ca7d0d31f9c",
        "android_client_info": {
          "package_name": "com.fwdss.app"
        }
      },
      "oauth_client": [
        {
          "client_id": "1065667128087-qmdli41v4a7lbs9a8jgkurrs0v39orkn.apps.googleusercontent.com",
          "client_type": 3
        }
      ],
      "api_key": [
        {
          "current_key": "AIzaSyBSTM_v0fD9EUEFs9IuqUkOAHbu3MgVZQQ"
        }
      ],
      "services": {
        "analytics_service": {
          "status": 1
        },
        "appinvite_service": {
          "status": 1,
          "other_platform_oauth_client": []
        },
        "ads_service": {
          "status": 2
        }
      }
    }
  ],
  "configuration_version": "1"
}